dialect "java"

import com.bca.EvoUserFeatures

rule "evo_notification"

when
    $f: EvoUserFeatures(value > (.2 * goal))
then
    System.out.println( "Triggered" + @{type} );
    modify ($f) {
      setTriggered(true)
    }
end
